<?xml version="1.0" encoding="utf-8"?>
<!-- Generator: Adobe Illustrator 22.0.0, SVG Export Plug-In . SVG Version: 6.00 Build 0)  -->
<svg version="1.1" id="Слой_1" xmlns="http://www.w3.org/2000/svg" xmlns:xlink="http://www.w3.org/1999/xlink" x="0px" y="0px"
	 viewBox="3215.5 5492.9 217.7 216.6" enable-background="new 3215.5 5492.9 217.7 216.6"
	 xml:space="preserve">
<g>
	<path fill="none" stroke="#C178C7" stroke-width="6.5" stroke-miterlimit="10" d="M3430.2,5602.1c0,58-47.1,105.1-105.1,105.1
		c-58.1,0-105.1-47.1-105.1-105.1c0-58.1,47.1-105.1,105.1-105.1C3383.1,5497,3430.2,5544,3430.2,5602.1z"/>
	<g>
		<g>
			<g>
				<path fill="#C178C7" d="M3327.5,5604.6c0.6-1.3,0-2.9-1.3-3.6s-2.9-0.1-3.6,1.3c-0.2,0.3-4.1,8.1-16.7,8.1
					c-12.7,0-16.6-7.8-16.7-8.1c-0.6-1.3-2.2-1.9-3.6-1.3c-1.3,0.6-1.9,2.2-1.3,3.6c0.2,0.5,5.4,11.2,21.6,11.2
					C3322.1,5615.8,3327.3,5605.1,3327.5,5604.6z"/>
				<path fill="#C178C7" d="M3313.4,5582.7h11.7c1.5,0,2.7-1.2,2.7-2.7c0-1.5-1.2-2.7-2.7-2.7h-11.7c-1.5,0-2.7,1.2-2.7,2.7
					C3310.7,5581.5,3311.9,5582.7,3313.4,5582.7z"/>
				<path fill="#C178C7" d="M3286.7,5582.7h11.7c1.5,0,2.7-1.2,2.7-2.7c0-1.5-1.2-2.7-2.7-2.7h-11.7c-1.5,0-2.7,1.2-2.7,2.7
					C3284,5581.5,3285.2,5582.7,3286.7,5582.7z"/>
				<path fill="#C178C7" d="M3339.7,5629.8c-16.2,0-21.4,10.7-21.6,11.2c-0.6,1.3,0,2.9,1.3,3.6c1.3,0.6,2.9,0.1,3.6-1.3
					c0.2-0.3,4.1-8.1,16.7-8.1c12.7,0,16.6,7.8,16.7,8.1c0.5,1,1.4,1.6,2.4,1.6c0.4,0,0.8-0.1,1.1-0.3c1.3-0.6,1.9-2.2,1.3-3.6
					C3361.1,5640.5,3355.9,5629.8,3339.7,5629.8z"/>
				<path fill="#C178C7" d="M3374.4,5583.5h-31.1v-31.1c0-1.5-1.2-2.7-2.7-2.7h-69.4c-1.5,0-2.7,1.2-2.7,2.7v35.2
					c0,31.7,18.7,43.2,35.1,47.1c4.7,22.7,21.3,31.2,35.6,34.2c0.2,0,0.4,0.1,0.6,0.1c0.2,0,0.4,0,0.6-0.1
					c16.8-3.5,36.8-14.7,36.8-47.5v-35.2C3377.1,5584.7,3375.9,5583.5,3374.4,5583.5z M3273.9,5587.6v-32.5h64v28.4v2.7v1.4
					c0,0.4,0,0.9,0,1.3c-0.3,17.6-7,29.8-19.8,36.5c0,0,0,0,0,0c-1,0.5-2,1-3,1.4c0,0,0,0-0.1,0c-1,0.4-2.1,0.8-3.2,1.2
					c0,0,0,0-0.1,0c-1.1,0.4-2.3,0.7-3.5,1c-0.7,0.2-1.5,0.4-2.2,0.6c-1-0.2-2-0.5-2.9-0.8c-0.1,0-0.2,0-0.3-0.1l0,0
					C3283.6,5623.5,3273.9,5609.6,3273.9,5587.6z M3371.7,5621.4c0,23.3-10.8,37.4-32,42.1c-16.9-3.7-27.1-13.5-30.6-29c0,0,0,0,0,0
					c0.5-0.1,0.9-0.2,1.4-0.4c0.1,0,0.1,0,0.2-0.1c0.4-0.1,0.9-0.3,1.3-0.4c0.1,0,0.1,0,0.2-0.1c0.4-0.1,0.9-0.3,1.3-0.4
					c0.1,0,0.2-0.1,0.2-0.1c0.4-0.2,0.9-0.3,1.3-0.5c0.1,0,0.1-0.1,0.2-0.1c0.4-0.2,0.9-0.3,1.3-0.5c0,0,0.1,0,0.1-0.1
					c0.5-0.2,0.9-0.4,1.4-0.6c0,0,0,0,0,0c5.5-2.5,10.7-6.1,15-11.2l0,0c5.9-7.1,9.9-17.1,10.1-31.2c0,0,0,0,0,0h28.4V5621.4
					L3371.7,5621.4z"/>
				<path fill="#C178C7" d="M3347.2,5616.5h11.7c1.5,0,2.7-1.2,2.7-2.7s-1.2-2.7-2.7-2.7h-11.7c-1.5,0-2.7,1.2-2.7,2.7
					S3345.7,5616.5,3347.2,5616.5z"/>
			</g>
		</g>
	</g>
</g>
</svg>
